…
#Question3/4
```{r3}
pop_url <- 'https://www2.census.gov/programs-surveys/popest/datasets/2020-2023/counties/totals/co-est2023-alldata.csv'
 colorado_covid_temp <- colorado_covid %>%
+     rename(FIP = fips)
> colorado_covid_temp
# A tibble: 49,527 × 8
   date       county state    FIP   cases deaths
   <date>     <chr>  <chr>    <chr> <dbl>  <dbl>
 1 2020-03-12 Adams  Colorado 08001     2      0
 2 2020-03-13 Adams  Colorado 08001     3      0
 3 2020-03-14 Adams  Colorado 08001     6      0
 4 2020-03-15 Adams  Colorado 08001     6      0
 5 2020-03-16 Adams  Colorado 08001     8      0
 6 2020-03-17 Adams  Colorado 08001    10      0
 7 2020-03-18 Adams  Colorado 08001    10      0
 8 2020-03-19 Adams  Colorado 08001    10      0
 9 2020-03-20 Adams  Colorado 08001    12      0
10 2020-03-21 Adams  Colorado 08001    14      0
# ℹ 49,517 more rows
# ℹ 2 more variables: new_cases <dbl>,
#   new_deaths <dbl>
# ℹ Use `print(n = ...)` to see more rows
…
